====== NpClass1 ======
DIT			1
WMC			2
NOC			0
RFC			3
LCOM			0
NPM			2
Ca			1
====== NpClass2 ======
DIT			1
WMC			3
NOC			0
RFC			2
LCOM			1
NPM			3
Ca			2
====== abstractpackage.ApClass1 ======
DIT			2
WMC			4
NOC			0
RFC			4
LCOM			3
NPM			2
Ca			1
====== abstractpackage.AbstractClass ======
DIT			1
WMC			3
NOC			1
RFC			2
LCOM			1
NPM			2
Ca			3
====== ownpackage.OwnClass ======
DIT			1
WMC			2
NOC			0
RFC			2
LCOM			0
NPM			2
Ca			2
====== abstractpackage.ApClass2 ======
DIT			2
WMC			2
NOC			0
RFC			4
LCOM			0
NPM			2
Ca			1
====== java.util.Map ======
DIT			1
WMC			14
NOC			0
RFC			14
LCOM			91
NPM			14
Ca			12
====== java.util.AbstractMap ======
DIT			1
WMC			18
NOC			0
RFC			17
LCOM			136
NPM			15
Ca			5
====== java.util.HashMap ======
DIT			2
WMC			43
NOC			0
RFC			39
LCOM			741
NPM			17
Ca			10
====== java.util.Locale ======
DIT			1
WMC			57
NOC			0
RFC			53
LCOM			1378
NPM			37
Ca			8
====== java.util.Collection ======
DIT			1
WMC			15
NOC			0
RFC			15
LCOM			105
NPM			15
Ca			11
====== java.util.ArrayList ======
DIT			3
WMC			42
NOC			0
RFC			39
LCOM			741
NPM			28
Ca			5
====== java.util.List ======
DIT			1
WMC			25
NOC			0
RFC			25
LCOM			300
NPM			25
Ca			5
====== java.util.AbstractCollection ======
DIT			1
WMC			17
NOC			0
RFC			16
LCOM			120
NPM			14
Ca			4
====== java.util.RandomAccess ======
DIT			1
WMC			0
NOC			0
RFC			0
LCOM			0
NPM			0
Ca			2
====== java.util.AbstractList ======
DIT			2
WMC			19
NOC			0
RFC			18
LCOM			153
NPM			15
Ca			4
====== java.util.Set ======
DIT			1
WMC			15
NOC			0
RFC			15
LCOM			105
NPM			15
Ca			6
====== java.util.Iterator ======
DIT			1
WMC			3
NOC			0
RFC			3
LCOM			3
NPM			3
Ca			19
====== java.util.AbstractSet ======
DIT			2
WMC			4
NOC			0
RFC			3
LCOM			3
NPM			3
Ca			3
====== java.util.MissingResourceException ======
DIT			4
WMC			4
NOC			0
RFC			2
LCOM			1
NPM			3
Ca			1
====== java.text.MessageFormat ======
DIT			2
WMC			28
NOC			0
RFC			26
LCOM			325
NPM			22
Ca			2
====== java.util.spi.LocaleNameProvider ======
DIT			2
WMC			5
NOC			0
RFC			4
LCOM			6
NPM			4
Ca			1
====== java.util.ListIterator ======
DIT			1
WMC			9
NOC			0
RFC			9
LCOM			36
NPM			9
Ca			7
====== java.text.Format ======
DIT			1
WMC			11
NOC			1
RFC			10
LCOM			45
NPM			6
Ca			5
====== java.text.FieldPosition ======
DIT			1
WMC			15
NOC			0
RFC			12
LCOM			66
NPM			12
Ca			3
====== java.text.AttributedCharacterIterator ======
DIT			1
WMC			9
NOC			0
RFC			9
LCOM			36
NPM			9
Ca			5
====== java.text.ParsePosition ======
DIT			1
WMC			8
NOC			0
RFC			7
LCOM			21
NPM			8
Ca			2
====== java.text.ParseException ======
DIT			3
WMC			2
NOC			0
RFC			1
LCOM			0
NPM			2
Ca			2
====== java.text.CharacterIterator ======
DIT			1
WMC			10
NOC			0
RFC			10
LCOM			45
NPM			10
Ca			2
====== java.util.spi.LocaleServiceProvider ======
DIT			1
WMC			2
NOC			1
RFC			1
LCOM			0
NPM			1
Ca			1
====== default ======
NCI			2
Ca			0
Ce			4
A			0.0
I			1.0
DMS			0.0
====== abstractpackage ======
NCI			3
Ca			1
Ce			0
A			0.33333
I			0.0
DMS			0.66667
====== ownpackage ======
NCI			1
Ca			2
Ce			0
A			0.0
I			0.0
DMS			1.0
====== java.util.spi ======
NCI			2
Ca			1
Ce			1
A			1.0
I			0.5
DMS			0.5
====== java.text ======
NCI			13
Ca			1
Ce			4
A			0.30769
I			0.8
DMS			0.10769
====== java.util ======
NCI			46
Ca			6
Ce			3
A			0.28261
I			0.33333
DMS			0.38406