====== test.Test ======
DIT			2
WMC			4
NOC			0
RFC			6
LCOM			6
NPM			4
Ca			1
====== test3.Test3 ======
DIT			1
WMC			1
NOC			0
RFC			1
LCOM			0
NPM			1
Ca			1
====== test2.Test2 ======
DIT			1
WMC			1
NOC			0
RFC			1
LCOM			0
NPM			1
Ca			1
====== test.TestAb ======
DIT			1
WMC			1
NOC			1
RFC			1
LCOM			0
NPM			1
Ca			1
====== java.util.ArrayList ======
DIT			3
WMC			42
NOC			0
RFC			39
LCOM			741
NPM			28
Ca			5
====== java.util.List ======
DIT			1
WMC			25
NOC			0
RFC			25
LCOM			300
NPM			25
Ca			4
====== java.util.AbstractCollection ======
DIT			1
WMC			17
NOC			0
RFC			16
LCOM			120
NPM			14
Ca			1
====== java.util.RandomAccess ======
DIT			1
WMC			0
NOC			0
RFC			0
LCOM			0
NPM			0
Ca			2
====== java.util.AbstractList ======
DIT			2
WMC			19
NOC			0
RFC			18
LCOM			153
NPM			15
Ca			4
====== java.util.Collection ======
DIT			1
WMC			15
NOC			0
RFC			15
LCOM			105
NPM			15
Ca			6
====== java.util.ListIterator ======
DIT			1
WMC			9
NOC			0
RFC			9
LCOM			36
NPM			9
Ca			7
====== java.util.Iterator ======
DIT			1
WMC			3
NOC			0
RFC			3
LCOM			3
NPM			3
Ca			9
