====== test.Test ======
DIT			2
WMC			4
NOC			0
RFC			6
LCOM			6
NPM			4
Ca			1
====== test3.Test3 ======
DIT			1
WMC			1
NOC			0
RFC			1
LCOM			0
NPM			1
Ca			1
====== test2.Test2 ======
DIT			1
WMC			1
NOC			0
RFC			1
LCOM			0
NPM			1
Ca			1
====== test.TestAb ======
DIT			1
WMC			1
NOC			1
RFC			1
LCOM			0
NPM			1
Ca			1
====== test ======
NCI			2
Ca			0
Ce			2
A			0.0
I			1.0
DMS			0.0
====== test3 ======
NCI			1
Ca			1
Ce			0
A			0.0
I			0.0
DMS			1.0
====== test2 ======
NCI			1
Ca			1
Ce			0
A			0.0
I			0.0
DMS			1.0
