====== NpClass1 ======
DIT			1
WMC			2
NOC			0
RFC			3
LCOM			0
NPM			2
Ca			1
====== NpClass2 ======
DIT			1
WMC			3
NOC			0
RFC			2
LCOM			1
NPM			3
Ca			2
====== abstractpackage.ApClass1 ======
DIT			2
WMC			4
NOC			0
RFC			4
LCOM			3
NPM			2
Ca			1
====== abstractpackage.AbstractClass ======
DIT			1
WMC			3
NOC			1
RFC			2
LCOM			1
NPM			2
Ca			3
====== ownpackage.OwnClass ======
DIT			1
WMC			2
NOC			0
RFC			2
LCOM			0
NPM			2
Ca			2
====== abstractpackage.ApClass2 ======
DIT			2
WMC			2
NOC			0
RFC			4
LCOM			0
NPM			2
Ca			1
====== java.lang.AutoCloseable ======
DIT			1
WMC			1
NOC			0
RFC			1
LCOM			0
NPM			1
Ca			4
====== java.util.Map ======
DIT			1
WMC			14
NOC			0
RFC			14
LCOM			91
NPM			14
Ca			61
====== java.lang.SafeVarargs ======
DIT			1
WMC			0
NOC			0
RFC			0
LCOM			0
NPM			0
Ca			0
====== java.util.AbstractMap ======
DIT			1
WMC			18
NOC			0
RFC			17
LCOM			136
NPM			15
Ca			8
====== java.io.PrintStream ======
DIT			3
WMC			49
NOC			0
RFC			39
LCOM			741
NPM			38
Ca			12
====== java.lang.System ======
DIT			1
WMC			38
NOC			0
RFC			37
LCOM			666
NPM			27
Ca			3
====== java.util.HashMap ======
DIT			2
WMC			43
NOC			0
RFC			39
LCOM			741
NPM			17
Ca			23
====== java.lang.Comparable ======
DIT			1
WMC			1
NOC			0
RFC			1
LCOM			0
NPM			1
Ca			25
====== java.lang.CharSequence ======
DIT			1
WMC			4
NOC			0
RFC			4
LCOM			6
NPM			4
Ca			57
====== java.lang.annotation.Retention ======
DIT			1
WMC			1
NOC			0
RFC			1
LCOM			0
NPM			1
Ca			8
====== java.io.FilterOutputStream ======
DIT			2
WMC			6
NOC			1
RFC			5
LCOM			10
NPM			6
Ca			2
====== java.util.Locale ======
DIT			1
WMC			57
NOC			0
RFC			53
LCOM			1378
NPM			37
Ca			33
====== java.lang.Throwable ======
DIT			1
WMC			26
NOC			0
RFC			21
LCOM			210
NPM			17
Ca			40
====== java.lang.Deprecated ======
DIT			1
WMC			0
NOC			0
RFC			0
LCOM			0
NPM			0
Ca			19
====== java.io.Serializable ======
DIT			1
WMC			0
NOC			0
RFC			0
LCOM			0
NPM			0
Ca			56
====== java.lang.SuppressWarnings ======
DIT			1
WMC			1
NOC			0
RFC			1
LCOM			0
NPM			1
Ca			0
====== java.util.Collection ======
DIT			1
WMC			15
NOC			0
RFC			15
LCOM			105
NPM			15
Ca			28
====== java.util.ArrayList ======
DIT			3
WMC			42
NOC			0
RFC			39
LCOM			741
NPM			28
Ca			8
====== java.lang.Object ======
DIT			0
WMC			13
NOC			39
RFC			12
LCOM			66
NPM			10
Ca			689
====== java.io.Closeable ======
DIT			1
WMC			1
NOC			0
RFC			1
LCOM			0
NPM			1
Ca			12
====== java.util.List ======
DIT			1
WMC			25
NOC			0
RFC			25
LCOM			300
NPM			25
Ca			37
====== java.lang.Override ======
DIT			1
WMC			0
NOC			0
RFC			0
LCOM			0
NPM			0
Ca			1
====== java.lang.String ======
DIT			1
WMC			89
NOC			0
RFC			72
LCOM			2556
NPM			80
Ca			377
====== java.lang.Cloneable ======
DIT			1
WMC			0
NOC			0
RFC			0
LCOM			0
NPM			0
Ca			18
====== java.lang.annotation.ElementType ======
DIT			2
WMC			5
NOC			0
RFC			6
LCOM			1
NPM			4
Ca			9
====== java.lang.annotation.Target ======
DIT			1
WMC			1
NOC			0
RFC			1
LCOM			0
NPM			1
Ca			8
====== java.util.AbstractCollection ======
DIT			1
WMC			17
NOC			0
RFC			16
LCOM			120
NPM			14
Ca			7
====== java.io.Flushable ======
DIT			1
WMC			1
NOC			0
RFC			1
LCOM			0
NPM			1
Ca			4
====== java.lang.Appendable ======
DIT			1
WMC			3
NOC			0
RFC			3
LCOM			3
NPM			3
Ca			7
====== java.lang.Iterable ======
DIT			1
WMC			1
NOC			0
RFC			1
LCOM			0
NPM			1
Ca			5
====== java.io.OutputStream ======
DIT			1
WMC			6
NOC			1
RFC			5
LCOM			10
NPM			6
Ca			17
====== java.util.RandomAccess ======
DIT			1
WMC			0
NOC			0
RFC			0
LCOM			0
NPM			0
Ca			3
====== java.util.AbstractList ======
DIT			2
WMC			19
NOC			0
RFC			18
LCOM			153
NPM			15
Ca			6
====== java.lang.Enum ======
DIT			1
WMC			13
NOC			0
RFC			12
LCOM			66
NPM			8
Ca			45
====== java.lang.Exception ======
DIT			2
WMC			5
NOC			0
RFC			0
LCOM			0
NPM			4
Ca			18
====== java.util.Set ======
DIT			1
WMC			15
NOC			0
RFC			15
LCOM			105
NPM			15
Ca			28
====== java.lang.annotation.Documented ======
DIT			1
WMC			0
NOC			0
RFC			0
LCOM			0
NPM			0
Ca			5
====== java.lang.annotation.RetentionPolicy ======
DIT			2
WMC			5
NOC			0
RFC			6
LCOM			1
NPM			4
Ca			10
====== java.lang.annotation.Annotation ======
DIT			1
WMC			4
NOC			0
RFC			4
LCOM			6
NPM			4
Ca			24
====== java.lang.CloneNotSupportedException ======
DIT			3
WMC			2
NOC			0
RFC			0
LCOM			0
NPM			2
Ca			7
====== java.util.Iterator ======
DIT			1
WMC			3
NOC			0
RFC			3
LCOM			3
NPM			3
Ca			57
====== java.util.AbstractSet ======
DIT			2
WMC			4
NOC			0
RFC			3
LCOM			3
NPM			3
Ca			9
====== java.util.Formatter ======
DIT			1
WMC			30
NOC			0
RFC			14
LCOM			91
NPM			22
Ca			9
====== java.io.BufferedWriter ======
DIT			2
WMC			11
NOC			0
RFC			9
LCOM			36
NPM			8
Ca			2
====== java.io.OutputStreamWriter ======
DIT			2
WMC			11
NOC			0
RFC			7
LCOM			21
NPM			10
Ca			1
====== java.nio.charset.Charset ======
DIT			1
WMC			30
NOC			0
RFC			29
LCOM			406
NPM			20
Ca			17
====== java.io.UnsupportedEncodingException ======
DIT			4
WMC			2
NOC			0
RFC			0
LCOM			0
NPM			2
Ca			7
====== java.io.FileNotFoundException ======
DIT			4
WMC			3
NOC			0
RFC			0
LCOM			0
NPM			2
Ca			3
====== java.io.File ======
DIT			1
WMC			61
NOC			0
RFC			55
LCOM			1485
NPM			54
Ca			17
====== java.io.IOException ======
DIT			3
WMC			4
NOC			2
RFC			0
LCOM			0
NPM			4
Ca			148
====== java.io.InputStream ======
DIT			1
WMC			10
NOC			0
RFC			9
LCOM			36
NPM			10
Ca			33
====== java.lang.SecurityManager ======
DIT			1
WMC			48
NOC			0
RFC			47
LCOM			1081
NPM			35
Ca			8
====== java.io.Console ======
DIT			1
WMC			15
NOC			0
RFC			14
LCOM			91
NPM			9
Ca			6
====== java.util.Properties ======
DIT			3
WMC			25
NOC			0
RFC			23
LCOM			253
NPM			17
Ca			4
====== java.nio.channels.Channel ======
DIT			1
WMC			2
NOC			0
RFC			2
LCOM			1
NPM			2
Ca			7
====== sun.reflect.CallerSensitive ======
DIT			1
WMC			0
NOC			0
RFC			0
LCOM			0
NPM			0
Ca			12
====== sun.misc.JavaLangAccess ======
DIT			1
WMC			11
NOC			0
RFC			11
LCOM			55
NPM			11
Ca			1
====== sun.reflect.ConstantPool ======
DIT			1
WMC			29
NOC			0
RFC			28
LCOM			378
NPM			15
Ca			3
====== java.lang.Class ======
DIT			1
WMC			113
NOC			0
RFC			112
LCOM			6216
NPM			57
Ca			68
====== sun.reflect.annotation.AnnotationType ======
DIT			1
WMC			9
NOC			0
RFC			8
LCOM			28
NPM			8
Ca			5
====== java.lang.Thread ======
DIT			1
WMC			73
NOC			0
RFC			64
LCOM			2016
NPM			50
Ca			22
====== sun.nio.ch.Interruptible ======
DIT			1
WMC			1
NOC			0
RFC			1
LCOM			0
NPM			1
Ca			5
====== java.lang.Runnable ======
DIT			1
WMC			1
NOC			0
RFC			1
LCOM			0
NPM			1
Ca			6
====== java.lang.StackTraceElement ======
DIT			1
WMC			9
NOC			0
RFC			8
LCOM			28
NPM			9
Ca			5
====== java.security.AccessControlContext ======
DIT			1
WMC			16
NOC			0
RFC			11
LCOM			55
NPM			6
Ca			9
====== java.security.PrivilegedAction ======
DIT			1
WMC			1
NOC			0
RFC			1
LCOM			0
NPM			1
Ca			31
====== java.io.ObjectOutputStream ======
DIT			2
WMC			56
NOC			0
RFC			54
LCOM			1431
NPM			24
Ca			28
====== java.io.ObjectInputStream ======
DIT			2
WMC			60
NOC			0
RFC			58
LCOM			1653
NPM			25
Ca			41
====== java.lang.ClassNotFoundException ======
DIT			4
WMC			5
NOC			0
RFC			2
LCOM			1
NPM			5
Ca			41
====== sun.util.locale.BaseLocale ======
DIT			1
WMC			11
NOC			0
RFC			9
LCOM			36
NPM			9
Ca			8
====== sun.util.locale.LocaleExtensions ======
DIT			1
WMC			16
NOC			0
RFC			14
LCOM			91
NPM			13
Ca			5
====== java.io.ObjectStreamField ======
DIT			1
WMC			17
NOC			0
RFC			13
LCOM			78
NPM			11
Ca			10
====== java.lang.Character ======
DIT			1
WMC			93
NOC			0
RFC			92
LCOM			4186
NPM			86
Ca			8
====== java.util.MissingResourceException ======
DIT			4
WMC			4
NOC			0
RFC			2
LCOM			1
NPM			3
Ca			1
====== sun.util.resources.OpenListResourceBundle ======
DIT			2
WMC			9
NOC			0
RFC			8
LCOM			28
NPM			4
Ca			3
====== java.text.MessageFormat ======
DIT			2
WMC			28
NOC			0
RFC			26
LCOM			325
NPM			22
Ca			2
====== java.io.ObjectStreamException ======
DIT			4
WMC			2
NOC			0
RFC			0
LCOM			0
NPM			0
Ca			13
====== sun.util.locale.InternalLocaleBuilder ======
DIT			1
WMC			20
NOC			0
RFC			19
LCOM			171
NPM			16
Ca			3
====== sun.util.LocaleServiceProviderPool ======
DIT			1
WMC			16
NOC			0
RFC			15
LCOM			105
NPM			7
Ca			5
====== java.util.spi.LocaleNameProvider ======
DIT			2
WMC			5
NOC			0
RFC			4
LCOM			6
NPM			4
Ca			1
====== sun.util.locale.LocaleObjectCache ======
DIT			1
WMC			7
NOC			0
RFC			5
LCOM			10
NPM			3
Ca			4
====== java.lang.reflect.GenericDeclaration ======
DIT			1
WMC			1
NOC			0
RFC			1
LCOM			0
NPM			1
Ca			4
====== java.lang.reflect.Type ======
DIT			1
WMC			0
NOC			0
RFC			0
LCOM			0
NPM			0
Ca			13
====== java.lang.reflect.AnnotatedElement ======
DIT			1
WMC			4
NOC			0
RFC			4
LCOM			6
NPM			4
Ca			3
====== java.io.PrintWriter ======
DIT			2
WMC			48
NOC			1
RFC			39
LCOM			741
NPM			42
Ca			6
====== java.util.ListIterator ======
DIT			1
WMC			9
NOC			0
RFC			9
LCOM			36
NPM			9
Ca			12
====== java.lang.InterruptedException ======
DIT			3
WMC			2
NOC			0
RFC			0
LCOM			0
NPM			2
Ca			12
====== java.util.Comparator ======
DIT			1
WMC			2
NOC			0
RFC			2
LCOM			1
NPM			2
Ca			6
====== java.lang.StringBuffer ======
DIT			2
WMC			56
NOC			0
RFC			52
LCOM			1326
NPM			54
Ca			11
====== java.lang.StringBuilder ======
DIT			2
WMC			42
NOC			0
RFC			38
LCOM			703
NPM			39
Ca			10
====== java.util.regex.Pattern ======
DIT			1
WMC			78
NOC			0
RFC			77
LCOM			2926
NPM			10
Ca			94
====== java.util.regex.Matcher ======
DIT			1
WMC			39
NOC			0
RFC			37
LCOM			666
NPM			32
Ca			46
====== java.math.BigInteger ======
DIT			2
WMC			102
NOC			0
RFC			90
LCOM			4005
NPM			50
Ca			6
====== java.math.BigDecimal ======
DIT			2
WMC			102
NOC			0
RFC			85
LCOM			3570
NPM			76
Ca			4
====== java.util.Calendar ======
DIT			1
WMC			80
NOC			0
RFC			78
LCOM			3003
NPM			47
Ca			3
====== java.io.Writer ======
DIT			1
WMC			12
NOC			3
RFC			10
LCOM			45
NPM			10
Ca			8
====== sun.nio.cs.StreamEncoder ======
DIT			2
WMC			23
NOC			0
RFC			20
LCOM			190
NPM			11
Ca			2
====== java.nio.charset.CharsetEncoder ======
DIT			1
WMC			26
NOC			0
RFC			24
LCOM			276
NPM			16
Ca			5
====== java.nio.charset.spi.CharsetProvider ======
DIT			1
WMC			3
NOC			0
RFC			2
LCOM			1
NPM			2
Ca			4
====== java.lang.ThreadLocal ======
DIT			1
WMC			11
NOC			0
RFC			10
LCOM			45
NPM			4
Ca			7
====== java.util.SortedMap ======
DIT			1
WMC			9
NOC			0
RFC			9
LCOM			36
NPM			9
Ca			4
====== java.nio.charset.CharsetDecoder ======
DIT			1
WMC			25
NOC			0
RFC			23
LCOM			253
NPM			16
Ca			4
====== java.nio.CharBuffer ======
DIT			2
WMC			41
NOC			0
RFC			39
LCOM			741
NPM			36
Ca			8
====== java.nio.ByteBuffer ======
DIT			2
WMC			63
NOC			0
RFC			61
LCOM			1830
NPM			57
Ca			19
====== java.lang.ClassLoader ======
DIT			1
WMC			69
NOC			0
RFC			66
LCOM			2145
NPM			13
Ca			19
====== java.util.ServiceLoader ======
DIT			1
WMC			12
NOC			0
RFC			11
LCOM			55
NPM			6
Ca			4
====== java.io.FileSystem ======
DIT			1
WMC			29
NOC			0
RFC			28
LCOM			378
NPM			27
Ca			2
====== java.nio.file.Path ======
DIT			1
WMC			29
NOC			0
RFC			29
LCOM			406
NPM			29
Ca			7
====== java.net.URI ======
DIT			1
WMC			73
NOC			0
RFC			67
LCOM			2211
NPM			34
Ca			6
====== java.net.URL ======
DIT			1
WMC			35
NOC			0
RFC			29
LCOM			406
NPM			28
Ca			27
====== java.net.MalformedURLException ======
DIT			4
WMC			2
NOC			0
RFC			0
LCOM			0
NPM			2
Ca			4
====== java.io.FilenameFilter ======
DIT			1
WMC			1
NOC			0
RFC			1
LCOM			0
NPM			1
Ca			1
====== java.io.FileFilter ======
DIT			1
WMC			1
NOC			0
RFC			1
LCOM			0
NPM			1
Ca			1
====== java.security.SecureRandom ======
DIT			2
WMC			19
NOC			0
RFC			15
LCOM			105
NPM			12
Ca			2
====== java.lang.ThreadGroup ======
DIT			1
WMC			40
NOC			0
RFC			36
LCOM			630
NPM			26
Ca			4
====== java.security.Permission ======
DIT			1
WMC			9
NOC			0
RFC			8
LCOM			28
NPM			9
Ca			11
====== java.io.FileDescriptor ======
DIT			1
WMC			7
NOC			0
RFC			5
LCOM			10
NPM			3
Ca			5
====== java.net.InetAddress ======
DIT			1
WMC			49
NOC			0
RFC			48
LCOM			1128
NPM			25
Ca			15
====== java.io.Reader ======
DIT			1
WMC			12
NOC			1
RFC			10
LCOM			45
NPM			10
Ca			5
====== sun.misc.JavaIOAccess ======
DIT			1
WMC			2
NOC			0
RFC			2
LCOM			1
NPM			2
Ca			1
====== java.lang.Readable ======
DIT			1
WMC			1
NOC			0
RFC			1
LCOM			0
NPM			1
Ca			2
====== java.util.Hashtable ======
DIT			2
WMC			31
NOC			0
RFC			27
LCOM			351
NPM			23
Ca			11
====== java.util.InvalidPropertiesFormatException ======
DIT			4
WMC			4
NOC			0
RFC			2
LCOM			1
NPM			2
Ca			1
====== java.util.Enumeration ======
DIT			1
WMC			2
NOC			0
RFC			2
LCOM			1
NPM			2
Ca			36
====== java.util.Dictionary ======
DIT			1
WMC			8
NOC			0
RFC			7
LCOM			21
NPM			8
Ca			1
====== java.lang.reflect.Member ======
DIT			1
WMC			4
NOC			0
RFC			4
LCOM			6
NPM			4
Ca			5
====== java.lang.reflect.Field ======
DIT			2
WMC			42
NOC			0
RFC			41
LCOM			820
NPM			31
Ca			8
====== java.lang.reflect.Constructor ======
DIT			2
WMC			30
NOC			0
RFC			29
LCOM			406
NPM			18
Ca			7
====== java.security.ProtectionDomain ======
DIT			1
WMC			11
NOC			0
RFC			9
LCOM			36
NPM			8
Ca			11
====== java.lang.ref.SoftReference ======
DIT			2
WMC			3
NOC			0
RFC			1
LCOM			0
NPM			3
Ca			7
====== java.lang.reflect.Method ======
DIT			2
WMC			32
NOC			0
RFC			31
LCOM			465
NPM			22
Ca			10
====== sun.reflect.generics.repository.ClassRepository ======
DIT			3
WMC			5
NOC			0
RFC			4
LCOM			6
NPM			3
Ca			2
====== sun.reflect.ReflectionFactory ======
DIT			1
WMC			20
NOC			0
RFC			19
LCOM			171
NPM			16
Ca			5
====== java.lang.ClassValue ======
DIT			1
WMC			15
NOC			0
RFC			14
LCOM			91
NPM			2
Ca			5
====== java.lang.InstantiationException ======
DIT			4
WMC			2
NOC			0
RFC			0
LCOM			0
NPM			2
Ca			7
====== java.lang.IllegalAccessException ======
DIT			4
WMC			2
NOC			0
RFC			0
LCOM			0
NPM			2
Ca			8
====== java.lang.reflect.TypeVariable ======
DIT			1
WMC			3
NOC			0
RFC			3
LCOM			3
NPM			3
Ca			6
====== java.lang.Package ======
DIT			1
WMC			28
NOC			0
RFC			26
LCOM			325
NPM			18
Ca			5
====== java.lang.SecurityException ======
DIT			4
WMC			4
NOC			0
RFC			0
LCOM			0
NPM			4
Ca			7
====== java.lang.NoSuchFieldException ======
DIT			4
WMC			2
NOC			0
RFC			0
LCOM			0
NPM			2
Ca			1
====== java.lang.NoSuchMethodException ======
DIT			4
WMC			2
NOC			0
RFC			0
LCOM			0
NPM			2
Ca			1
====== java.lang.NoSuchMethodError ======
DIT			5
WMC			2
NOC			0
RFC			0
LCOM			0
NPM			2
Ca			1
====== sun.reflect.generics.factory.GenericsFactory ======
DIT			1
WMC			15
NOC			0
RFC			15
LCOM			105
NPM			15
Ca			11
====== java.lang.Void ======
DIT			1
WMC			1
NOC			0
RFC			0
LCOM			0
NPM			0
Ca			15
====== java.lang.RuntimePermission ======
DIT			3
WMC			2
NOC			0
RFC			0
LCOM			0
NPM			2
Ca			1
====== java.lang.ref.ReferenceQueue ======
DIT			1
WMC			6
NOC			0
RFC			5
LCOM			10
NPM			4
Ca			21
====== java.util.concurrent.ConcurrentMap ======
DIT			1
WMC			4
NOC			0
RFC			4
LCOM			6
NPM			4
Ca			13
====== java.lang.ref.WeakReference ======
DIT			2
WMC			2
NOC			0
RFC			0
LCOM			0
NPM			2
Ca			11
====== java.lang.Boolean ======
DIT			1
WMC			14
NOC			0
RFC			12
LCOM			66
NPM			13
Ca			10
====== java.lang.ref.Reference ======
DIT			1
WMC			6
NOC			0
RFC			4
LCOM			6
NPM			4
Ca			7
====== java.security.DomainCombiner ======
DIT			1
WMC			1
NOC			0
RFC			1
LCOM			0
NPM			1
Ca			1
====== sun.security.util.Debug ======
DIT			1
WMC			11
NOC			0
RFC			10
LCOM			45
NPM			10
Ca			8
====== java.security.AccessControlException ======
DIT			5
WMC			3
NOC			0
RFC			1
LCOM			0
NPM			3
Ca			1
====== java.io.ObjectOutput ======
DIT			1
WMC			6
NOC			0
RFC			6
LCOM			15
NPM			6
Ca			4
====== java.io.ObjectStreamConstants ======
DIT			1
WMC			0
NOC			0
RFC			0
LCOM			0
NPM			0
Ca			2
====== java.io.SerialCallbackContext ======
DIT			1
WMC			5
NOC			0
RFC			4
LCOM			6
NPM			4
Ca			2
====== java.io.ObjectStreamClass ======
DIT			1
WMC			71
NOC			0
RFC			69
LCOM			2346
NPM			8
Ca			17
====== java.io.Externalizable ======
DIT			1
WMC			2
NOC			0
RFC			2
LCOM			1
NPM			2
Ca			2
====== java.io.DataOutput ======
DIT			1
WMC			14
NOC			0
RFC			14
LCOM			91
NPM			14
Ca			3
====== java.io.DataOutputStream ======
DIT			3
WMC			18
NOC			0
RFC			17
LCOM			136
NPM			16
Ca			2
====== java.io.ObjectInput ======
DIT			1
WMC			7
NOC			0
RFC			7
LCOM			21
NPM			7
Ca			2
====== java.io.ObjectInputValidation ======
DIT			1
WMC			1
NOC			0
RFC			1
LCOM			0
NPM			1
Ca			3
====== java.io.NotActiveException ======
DIT			5
WMC			2
NOC			0
RFC			0
LCOM			0
NPM			2
Ca			2
====== java.io.InvalidObjectException ======
DIT			5
WMC			1
NOC			0
RFC			0
LCOM			0
NPM			1
Ca			6
====== java.io.StreamCorruptedException ======
DIT			5
WMC			2
NOC			0
RFC			0
LCOM			0
NPM			2
Ca			2
====== java.io.DataInput ======
DIT			1
WMC			15
NOC			0
RFC			15
LCOM			105
NPM			15
Ca			3
====== java.io.DataInputStream ======
DIT			3
WMC			19
NOC			0
RFC			18
LCOM			153
NPM			19
Ca			1
====== java.security.PrivilegedExceptionAction ======
DIT			1
WMC			1
NOC			0
RFC			1
LCOM			0
NPM			1
Ca			8
====== java.lang.ReflectiveOperationException ======
DIT			3
WMC			4
NOC			5
RFC			0
LCOM			0
NPM			4
Ca			6
====== sun.util.locale.Extension ======
DIT			1
WMC			7
NOC			0
RFC			5
LCOM			10
NPM			4
Ca			1
====== java.lang.RuntimeException ======
DIT			3
WMC			5
NOC			2
RFC			0
LCOM			0
NPM			4
Ca			6
====== java.util.ResourceBundle ======
DIT			1
WMC			30
NOC			2
RFC			29
LCOM			406
NPM			16
Ca			14
====== java.text.Format ======
DIT			1
WMC			11
NOC			1
RFC			10
LCOM			45
NPM			6
Ca			5
====== java.text.FieldPosition ======
DIT			1
WMC			15
NOC			0
RFC			12
LCOM			66
NPM			12
Ca			3
====== java.text.AttributedCharacterIterator ======
DIT			1
WMC			9
NOC			0
RFC			9
LCOM			36
NPM			9
Ca			5
====== java.text.ParsePosition ======
DIT			1
WMC			8
NOC			0
RFC			7
LCOM			21
NPM			8
Ca			2
====== java.text.ParseException ======
DIT			3
WMC			2
NOC			0
RFC			1
LCOM			0
NPM			2
Ca			2
====== java.text.CharacterIterator ======
DIT			1
WMC			10
NOC			0
RFC			10
LCOM			45
NPM			10
Ca			2
====== sun.util.locale.LocaleSyntaxException ======
DIT			3
WMC			3
NOC			0
RFC			1
LCOM			0
NPM			3
Ca			1
====== sun.util.locale.LanguageTag ======
DIT			1
WMC			39
NOC			0
RFC			38
LCOM			703
NPM			31
Ca			2
====== java.util.spi.LocaleServiceProvider ======
DIT			1
WMC			2
NOC			2
RFC			1
LCOM			0
NPM			1
Ca			4
====== java.lang.AbstractStringBuilder ======
DIT			1
WMC			55
NOC			2
RFC			53
LCOM			1378
NPM			50
Ca			3
====== java.lang.Integer ======
DIT			2
WMC			40
NOC			0
RFC			38
LCOM			703
NPM			37
Ca			7
====== java.util.regex.PatternSyntaxException ======
DIT			5
WMC			5
NOC			0
RFC			4
LCOM			6
NPM			5
Ca			1
====== java.util.regex.UnicodeProp ======
DIT			2
WMC			8
NOC			0
RFC			9
LCOM			10
NPM			7
Ca			20
====== java.util.regex.MatchResult ======
DIT			1
WMC			7
NOC			0
RFC			7
LCOM			21
NPM			7
Ca			1
====== java.lang.Number ======
DIT			1
WMC			7
NOC			3
RFC			6
LCOM			15
NPM			7
Ca			6
====== java.util.Random ======
DIT			1
WMC			17
NOC			1
RFC			15
LCOM			105
NPM			11
Ca			2
====== sun.misc.Unsafe ======
DIT			1
WMC			108
NOC			0
RFC			107
LCOM			5671
NPM			106
Ca			10
====== java.math.MathContext ======
DIT			1
WMC			9
NOC			0
RFC			6
LCOM			15
NPM			8
Ca			2
====== java.math.RoundingMode ======
DIT			2
WMC			6
NOC			0
RFC			7
LCOM			3
NPM			5
Ca			3
====== java.util.TimeZone ======
DIT			1
WMC			33
NOC			0
RFC			32
LCOM			496
NPM			22
Ca			11
====== java.util.Date ======
DIT			1
WMC			45
NOC			0
RFC			39
LCOM			741
NPM			33
Ca			8
====== java.text.DateFormatSymbols ======
DIT			1
WMC			35
NOC			0
RFC			33
LCOM			528
NPM			24
Ca			4
====== sun.util.calendar.ZoneInfo ======
DIT			2
WMC			31
NOC			0
RFC			28
LCOM			378
NPM			24
Ca			1
====== java.nio.channels.WritableByteChannel ======
DIT			1
WMC			1
NOC			0
RFC			1
LCOM			0
NPM			1
Ca			4
====== java.nio.charset.CodingErrorAction ======
DIT			1
WMC			2
NOC			0
RFC			1
LCOM			0
NPM			1
Ca			3
====== java.nio.charset.CoderResult ======
DIT			1
WMC			11
NOC			0
RFC			10
LCOM			45
NPM			10
Ca			6
====== java.nio.charset.CharacterCodingException ======
DIT			4
WMC			1
NOC			0
RFC			0
LCOM			0
NPM			1
Ca			3
====== java.util.concurrent.atomic.AtomicInteger ======
DIT			2
WMC			19
NOC			0
RFC			17
LCOM			136
NPM			19
Ca			3
====== java.nio.Buffer ======
DIT			1
WMC			28
NOC			2
RFC			27
LCOM			351
NPM			17
Ca			8
====== java.nio.ByteOrder ======
DIT			1
WMC			3
NOC			0
RFC			2
LCOM			1
NPM			2
Ca			8
====== java.nio.ShortBuffer ======
DIT			2
WMC			29
NOC			0
RFC			27
LCOM			351
NPM			25
Ca			2
====== java.nio.IntBuffer ======
DIT			2
WMC			29
NOC			0
RFC			27
LCOM			351
NPM			25
Ca			2
====== java.nio.LongBuffer ======
DIT			2
WMC			29
NOC			0
RFC			27
LCOM			351
NPM			25
Ca			2
====== java.nio.FloatBuffer ======
DIT			2
WMC			29
NOC			0
RFC			27
LCOM			351
NPM			25
Ca			2
====== java.nio.DoubleBuffer ======
DIT			2
WMC			29
NOC			0
RFC			27
LCOM			351
NPM			25
Ca			2
====== java.util.concurrent.ConcurrentHashMap ======
DIT			2
WMC			34
NOC			0
RFC			29
LCOM			406
NPM			24
Ca			12
====== java.security.cert.Certificate ======
DIT			1
WMC			10
NOC			0
RFC			9
LCOM			36
NPM			8
Ca			12
====== java.util.Vector ======
DIT			3
WMC			54
NOC			0
RFC			50
LCOM			1225
NPM			48
Ca			5
====== java.util.Stack ======
DIT			4
WMC			6
NOC			0
RFC			5
LCOM			10
NPM			6
Ca			2
====== java.lang.ClassFormatError ======
DIT			4
WMC			2
NOC			0
RFC			0
LCOM			0
NPM			2
Ca			1
====== java.security.CodeSource ======
DIT			1
WMC			14
NOC			0
RFC			12
LCOM			66
NPM			9
Ca			6
====== sun.misc.URLClassPath ======
DIT			1
WMC			17
NOC			0
RFC			15
LCOM			105
NPM			13
Ca			12
====== java.lang.IllegalArgumentException ======
DIT			4
WMC			4
NOC			1
RFC			0
LCOM			0
NPM			4
Ca			11
====== java.lang.AssertionStatusDirectives ======
DIT			1
WMC			1
NOC			0
RFC			0
LCOM			0
NPM			0
Ca			1
====== java.util.LinkedHashMap ======
DIT			3
WMC			16
NOC			0
RFC			11
LCOM			55
NPM			8
Ca			8
====== java.util.ServiceConfigurationError ======
DIT			3
WMC			2
NOC			0
RFC			0
LCOM			0
NPM			2
Ca			1
====== java.io.BufferedReader ======
DIT			2
WMC			15
NOC			0
RFC			13
LCOM			78
NPM			11
Ca			1
====== java.nio.file.Watchable ======
DIT			1
WMC			2
NOC			0
RFC			2
LCOM			1
NPM			2
Ca			2
====== java.nio.file.FileSystem ======
DIT			1
WMC			13
NOC			0
RFC			12
LCOM			66
NPM			12
Ca			2
====== java.nio.file.LinkOption ======
DIT			2
WMC			5
NOC			0
RFC			6
LCOM			1
NPM			4
Ca			3
====== java.nio.file.WatchKey ======
DIT			1
WMC			5
NOC			0
RFC			5
LCOM			10
NPM			5
Ca			3
====== java.nio.file.WatchService ======
DIT			1
WMC			4
NOC			0
RFC			4
LCOM			6
NPM			4
Ca			3
====== java.nio.file.WatchEvent ======
DIT			1
WMC			3
NOC			0
RFC			3
LCOM			3
NPM			3
Ca			4
====== java.net.URISyntaxException ======
DIT			3
WMC			6
NOC			0
RFC			4
LCOM			6
NPM			6
Ca			3
====== java.net.URLStreamHandler ======
DIT			1
WMC			13
NOC			0
RFC			12
LCOM			66
NPM			1
Ca			4
====== java.net.URLStreamHandlerFactory ======
DIT			1
WMC			1
NOC			0
RFC			1
LCOM			0
NPM			1
Ca			2
====== java.net.URLConnection ======
DIT			1
WMC			60
NOC			0
RFC			59
LCOM			1711
NPM			51
Ca			4
====== java.net.Proxy ======
DIT			1
WMC			7
NOC			0
RFC			5
LCOM			10
NPM			6
Ca			4
====== java.security.Provider ======
DIT			4
WMC			38
NOC			0
RFC			37
LCOM			666
NPM			18
Ca			6
====== java.security.SecureRandomSpi ======
DIT			1
WMC			4
NOC			0
RFC			3
LCOM			3
NPM			1
Ca			1
====== java.security.MessageDigest ======
DIT			2
WMC			18
NOC			1
RFC			17
LCOM			136
NPM			17
Ca			6
====== java.security.NoSuchAlgorithmException ======
DIT			4
WMC			4
NOC			0
RFC			0
LCOM			0
NPM			4
Ca			4
====== java.security.NoSuchProviderException ======
DIT			4
WMC			2
NOC			0
RFC			0
LCOM			0
NPM			2
Ca			4
====== java.security.Guard ======
DIT			1
WMC			1
NOC			0
RFC			1
LCOM			0
NPM			1
Ca			1
====== java.security.PermissionCollection ======
DIT			1
WMC			7
NOC			0
RFC			6
LCOM			15
NPM			7
Ca			7
====== java.io.SyncFailedException ======
DIT			4
WMC			1
NOC			0
RFC			0
LCOM			0
NPM			1
Ca			1
====== sun.misc.JavaIOFileDescriptorAccess ======
DIT			1
WMC			4
NOC			0
RFC			4
LCOM			6
NPM			4
Ca			1
====== sun.net.spi.nameservice.NameService ======
DIT			1
WMC			2
NOC			0
RFC			2
LCOM			1
NPM			2
Ca			3
====== java.net.InetAddressImpl ======
DIT			1
WMC			6
NOC			0
RFC			6
LCOM			15
NPM			6
Ca			1
====== java.net.NetworkInterface ======
DIT			1
WMC			35
NOC			0
RFC			33
LCOM			528
NPM			21
Ca			6
====== java.net.UnknownHostException ======
DIT			4
WMC			2
NOC			0
RFC			0
LCOM			0
NPM			2
Ca			5
====== java.io.NotSerializableException ======
DIT			5
WMC			2
NOC			0
RFC			0
LCOM			0
NPM			2
Ca			1
====== java.lang.reflect.AccessibleObject ======
DIT			1
WMC			11
NOC			3
RFC			10
LCOM			45
NPM			7
Ca			4
====== sun.reflect.generics.repository.FieldRepository ======
DIT			2
WMC			4
NOC			0
RFC			3
LCOM			3
NPM			2
Ca			2
====== sun.reflect.FieldAccessor ======
DIT			1
WMC			18
NOC			0
RFC			18
LCOM			153
NPM			18
Ca			2
====== sun.reflect.generics.repository.ConstructorRepository ======
DIT			3
WMC			5
NOC			0
RFC			4
LCOM			6
NPM			3
Ca			3
====== sun.reflect.ConstructorAccessor ======
DIT			1
WMC			1
NOC			0
RFC			1
LCOM			0
NPM			1
Ca			3
====== java.lang.reflect.InvocationTargetException ======
DIT			4
WMC			5
NOC			0
RFC			2
LCOM			1
NPM			4
Ca			5
====== java.security.Principal ======
DIT			1
WMC			4
NOC			0
RFC			4
LCOM			6
NPM			4
Ca			2
====== sun.misc.JavaSecurityProtectionDomainAccess ======
DIT			1
WMC			1
NOC			0
RFC			1
LCOM			0
NPM			1
Ca			3
====== sun.misc.JavaSecurityAccess ======
DIT			1
WMC			2
NOC			0
RFC			2
LCOM			1
NPM			2
Ca			1
====== sun.reflect.generics.repository.MethodRepository ======
DIT			4
WMC			3
NOC			0
RFC			2
LCOM			1
NPM			2
Ca			2
====== sun.reflect.MethodAccessor ======
DIT			1
WMC			1
NOC			0
RFC			1
LCOM			0
NPM			1
Ca			3
====== sun.reflect.generics.repository.GenericDeclRepository ======
DIT			2
WMC			2
NOC			0
RFC			1
LCOM			0
NPM			1
Ca			2
====== sun.reflect.generics.tree.ClassSignature ======
DIT			1
WMC			6
NOC			0
RFC			5
LCOM			10
NPM			5
Ca			3
====== sun.reflect.generics.repository.AbstractRepository ======
DIT			1
WMC			5
NOC			0
RFC			4
LCOM			6
NPM			0
Ca			2
====== sun.reflect.LangReflectAccess ======
DIT			1
WMC			14
NOC			0
RFC			14
LCOM			91
NPM			14
Ca			1
====== java.util.WeakHashMap ======
DIT			2
WMC			29
NOC			0
RFC			25
LCOM			300
NPM			16
Ca			10
====== java.util.jar.Manifest ======
DIT			1
WMC			15
NOC			0
RFC			12
LCOM			66
NPM			12
Ca			8
====== java.lang.NumberFormatException ======
DIT			5
WMC			3
NOC			0
RFC			1
LCOM			0
NPM			2
Ca			4
====== java.lang.IncompatibleClassChangeError ======
DIT			4
WMC			2
NOC			1
RFC			0
LCOM			0
NPM			2
Ca			1
====== java.lang.LinkageError ======
DIT			3
WMC			3
NOC			2
RFC			0
LCOM			0
NPM			3
Ca			2
====== java.lang.Error ======
DIT			2
WMC			5
NOC			2
RFC			0
LCOM			0
NPM			4
Ca			2
====== sun.reflect.generics.tree.FieldTypeSignature ======
DIT			1
WMC			0
NOC			0
RFC			0
LCOM			0
NPM			0
Ca			9
====== java.lang.reflect.ParameterizedType ======
DIT			1
WMC			3
NOC			0
RFC			3
LCOM			3
NPM			3
Ca			1
====== java.lang.reflect.WildcardType ======
DIT			1
WMC			2
NOC			0
RFC			2
LCOM			1
NPM			2
Ca			1
====== java.security.BasicPermission ======
DIT			2
WMC			10
NOC			1
RFC			8
LCOM			28
NPM			7
Ca			2
====== java.io.SerializablePermission ======
DIT			3
WMC			2
NOC			0
RFC			0
LCOM			0
NPM			2
Ca			1
====== java.lang.Long ======
DIT			2
WMC			40
NOC			0
RFC			38
LCOM			703
NPM			37
Ca			4
====== java.io.InvalidClassException ======
DIT			5
WMC			3
NOC			0
RFC			1
LCOM			0
NPM			3
Ca			2
====== java.lang.UnsupportedOperationException ======
DIT			4
WMC			4
NOC			0
RFC			0
LCOM			0
NPM			4
Ca			1
====== java.io.FilterInputStream ======
DIT			2
WMC			10
NOC			2
RFC			9
LCOM			36
NPM			9
Ca			4
====== sun.util.locale.ParseStatus ======
DIT			1
WMC			6
NOC			0
RFC			5
LCOM			10
NPM			6
Ca			1
====== sun.util.locale.StringTokenIterator ======
DIT			1
WMC			11
NOC			0
RFC			10
LCOM			45
NPM			10
Ca			2
====== java.util.concurrent.atomic.AtomicLong ======
DIT			2
WMC			20
NOC			0
RFC			18
LCOM			153
NPM			19
Ca			1
====== sun.util.calendar.BaseCalendar ======
DIT			3
WMC			19
NOC			0
RFC			18
LCOM			153
NPM			13
Ca			6
====== java.text.spi.DateFormatSymbolsProvider ======
DIT			2
WMC			2
NOC			0
RFC			1
LCOM			0
NPM			1
Ca			1
====== sun.util.calendar.CalendarSystem ======
DIT			1
WMC			23
NOC			0
RFC			22
LCOM			231
NPM			22
Ca			3
====== java.util.SimpleTimeZone ======
DIT			2
WMC			41
NOC			0
RFC			37
LCOM			666
NPM			25
Ca			1
====== java.util.concurrent.locks.ReentrantLock ======
DIT			1
WMC			21
NOC			1
RFC			19
LCOM			171
NPM			18
Ca			4
====== java.util.concurrent.locks.Lock ======
DIT			1
WMC			6
NOC			0
RFC			6
LCOM			15
NPM			6
Ca			1
====== java.security.cert.CertificateEncodingException ======
DIT			5
WMC			4
NOC			0
RFC			0
LCOM			0
NPM			4
Ca			2
====== java.security.PublicKey ======
DIT			1
WMC			0
NOC			0
RFC			0
LCOM			0
NPM			0
Ca			1
====== java.security.cert.CertificateException ======
DIT			4
WMC			4
NOC			1
RFC			0
LCOM			0
NPM			4
Ca			4
====== java.security.InvalidKeyException ======
DIT			5
WMC			4
NOC			0
RFC			0
LCOM			0
NPM			4
Ca			1
====== java.security.SignatureException ======
DIT			4
WMC			4
NOC			0
RFC			0
LCOM			0
NPM			4
Ca			1
====== java.security.CodeSigner ======
DIT			1
WMC			7
NOC			0
RFC			6
LCOM			15
NPM			6
Ca			8
====== java.net.SocketPermission ======
DIT			2
WMC			29
NOC			0
RFC			27
LCOM			351
NPM			6
Ca			2
====== java.security.cert.CertificateFactory ======
DIT			1
WMC			14
NOC			0
RFC			13
LCOM			78
NPM			13
Ca			2
====== sun.misc.Resource ======
DIT			1
WMC			12
NOC			3
RFC			11
LCOM			55
NPM			11
Ca			8
====== java.util.jar.JarFile ======
DIT			2
WMC			27
NOC			0
RFC			22
LCOM			231
NPM			10
Ca			10
====== sun.misc.JarIndex ======
DIT			1
WMC			14
NOC			0
RFC			11
LCOM			55
NPM			11
Ca			2
====== sun.misc.MetaIndex ======
DIT			1
WMC			5
NOC			0
RFC			4
LCOM			6
NPM			3
Ca			3
====== sun.misc.JavaUtilZipFileAccess ======
DIT			1
WMC			1
NOC			0
RFC			1
LCOM			0
NPM			1
Ca			2
====== java.util.jar.JarEntry ======
DIT			2
WMC			6
NOC			1
RFC			3
LCOM			3
NPM			6
Ca			11
====== java.nio.file.spi.FileSystemProvider ======
DIT			1
WMC			32
NOC			0
RFC			30
LCOM			435
NPM			28
Ca			3
====== java.nio.file.FileStore ======
DIT			1
WMC			11
NOC			0
RFC			10
LCOM			45
NPM			10
Ca			2
====== java.nio.file.PathMatcher ======
DIT			1
WMC			1
NOC			0
RFC			1
LCOM			0
NPM			1
Ca			1
====== java.nio.file.attribute.UserPrincipalLookupService ======
DIT			1
WMC			3
NOC			0
RFC			2
LCOM			1
NPM			2
Ca			1
====== java.nio.file.OpenOption ======
DIT			1
WMC			0
NOC			0
RFC			0
LCOM			0
NPM			0
Ca			4
====== java.nio.file.CopyOption ======
DIT			1
WMC			0
NOC			0
RFC			0
LCOM			0
NPM			0
Ca			2
====== java.util.concurrent.TimeUnit ======
DIT			2
WMC			18
NOC			0
RFC			19
LCOM			105
NPM			15
Ca			17
====== sun.net.www.MessageHeader ======
DIT			1
WMC			25
NOC			0
RFC			23
LCOM			253
NPM			24
Ca			2
====== java.net.FileNameMap ======
DIT			1
WMC			1
NOC			0
RFC			1
LCOM			0
NPM			1
Ca			2
====== java.net.ContentHandlerFactory ======
DIT			1
WMC			1
NOC			0
RFC			1
LCOM			0
NPM			1
Ca			1
====== java.net.ContentHandler ======
DIT			1
WMC			3
NOC			0
RFC			2
LCOM			1
NPM			3
Ca			2
====== java.net.UnknownServiceException ======
DIT			4
WMC			2
NOC			0
RFC			0
LCOM			0
NPM			2
Ca			1
====== java.net.SocketAddress ======
DIT			1
WMC			1
NOC			0
RFC			0
LCOM			0
NPM			1
Ca			1
====== java.security.Key ======
DIT			1
WMC			3
NOC			0
RFC			3
LCOM			3
NPM			3
Ca			2
====== java.security.MessageDigestSpi ======
DIT			1
WMC			9
NOC			1
RFC			8
LCOM			28
NPM			2
Ca			2
====== java.security.DigestException ======
DIT			4
WMC			4
NOC			0
RFC			0
LCOM			0
NPM			4
Ca			3
====== java.security.GeneralSecurityException ======
DIT			3
WMC			4
NOC			5
RFC			0
LCOM			0
NPM			4
Ca			7
====== java.net.InterfaceAddress ======
DIT			1
WMC			7
NOC			0
RFC			6
LCOM			15
NPM			6
Ca			1
====== java.net.SocketException ======
DIT			4
WMC			2
NOC			0
RFC			0
LCOM			0
NPM			2
Ca			1
====== sun.reflect.generics.tree.TypeSignature ======
DIT			1
WMC			0
NOC			0
RFC			0
LCOM			0
NPM			0
Ca			5
====== sun.reflect.generics.tree.MethodTypeSignature ======
DIT			1
WMC			7
NOC			0
RFC			6
LCOM			15
NPM			6
Ca			3
====== sun.reflect.generics.tree.Signature ======
DIT			1
WMC			1
NOC			0
RFC			1
LCOM			0
NPM			1
Ca			3
====== sun.reflect.generics.tree.FormalTypeParameter ======
DIT			1
WMC			5
NOC			0
RFC			4
LCOM			6
NPM			4
Ca			6
====== sun.reflect.generics.tree.ClassTypeSignature ======
DIT			1
WMC			4
NOC			0
RFC			3
LCOM			3
NPM			3
Ca			4
====== sun.reflect.generics.visitor.Visitor ======
DIT			1
WMC			2
NOC			0
RFC			2
LCOM			1
NPM			2
Ca			2
====== sun.reflect.generics.tree.Tree ======
DIT			1
WMC			0
NOC			0
RFC			0
LCOM			0
NPM			0
Ca			3
====== sun.reflect.generics.visitor.Reifier ======
DIT			1
WMC			21
NOC			0
RFC			20
LCOM			190
NPM			18
Ca			2
====== java.util.jar.Attributes ======
DIT			1
WMC			24
NOC			0
RFC			21
LCOM			210
NPM			21
Ca			5
====== sun.reflect.generics.tree.BaseType ======
DIT			1
WMC			0
NOC			0
RFC			0
LCOM			0
NPM			0
Ca			9
====== sun.reflect.generics.tree.TypeArgument ======
DIT			1
WMC			0
NOC			0
RFC			0
LCOM			0
NPM			0
Ca			4
====== sun.reflect.generics.tree.ReturnType ======
DIT			1
WMC			0
NOC			0
RFC			0
LCOM			0
NPM			0
Ca			3
====== sun.reflect.generics.tree.TypeTree ======
DIT			1
WMC			1
NOC			0
RFC			1
LCOM			0
NPM			1
Ca			3
====== sun.util.calendar.AbstractCalendar ======
DIT			2
WMC			23
NOC			1
RFC			22
LCOM			231
NPM			14
Ca			1
====== sun.util.calendar.CalendarDate ======
DIT			1
WMC			52
NOC			1
RFC			50
LCOM			1225
NPM			43
Ca			7
====== sun.util.calendar.Gregorian ======
DIT			4
WMC			8
NOC			0
RFC			7
LCOM			21
NPM			7
Ca			3
====== sun.util.calendar.Era ======
DIT			1
WMC			11
NOC			0
RFC			10
LCOM			45
NPM			11
Ca			3
====== java.util.concurrent.locks.Condition ======
DIT			1
WMC			7
NOC			0
RFC			7
LCOM			21
NPM			7
Ca			3
====== java.util.concurrent.locks.AbstractQueuedSynchronizer ======
DIT			2
WMC			58
NOC			1
RFC			57
LCOM			1596
NPM			22
Ca			4
====== java.util.concurrent.locks.AbstractOwnableSynchronizer ======
DIT			1
WMC			3
NOC			1
RFC			2
LCOM			1
NPM			0
Ca			1
====== java.security.KeyException ======
DIT			4
WMC			4
NOC			1
RFC			0
LCOM			0
NPM			4
Ca			1
====== java.security.cert.CertPath ======
DIT			1
WMC			10
NOC			0
RFC			9
LCOM			36
NPM			8
Ca			4
====== java.security.Timestamp ======
DIT			1
WMC			7
NOC			0
RFC			6
LCOM			15
NPM			6
Ca			1
====== java.security.cert.CertificateFactorySpi ======
DIT			1
WMC			9
NOC			0
RFC			8
LCOM			28
NPM			9
Ca			1
====== java.security.cert.CRL ======
DIT			1
WMC			4
NOC			0
RFC			3
LCOM			3
NPM			3
Ca			2
====== java.security.cert.CRLException ======
DIT			4
WMC			4
NOC			0
RFC			0
LCOM			0
NPM			4
Ca			2
====== java.util.zip.ZipFile ======
DIT			1
WMC			38
NOC			1
RFC			32
LCOM			496
NPM			13
Ca			6
====== java.util.jar.JarVerifier ======
DIT			1
WMC			27
NOC			0
RFC			26
LCOM			325
NPM			15
Ca			6
====== java.util.zip.ZipEntry ======
DIT			1
WMC			24
NOC			1
RFC			21
LCOM			210
NPM			21
Ca			7
====== java.util.zip.ZipConstants ======
DIT			1
WMC			0
NOC			0
RFC			0
LCOM			0
NPM			0
Ca			2
====== java.util.LinkedList ======
DIT			4
WMC			56
NOC			0
RFC			54
LCOM			1431
NPM			41
Ca			5
====== java.nio.channels.FileChannel ======
DIT			2
WMC			23
NOC			0
RFC			22
LCOM			231
NPM			22
Ca			4
====== java.nio.file.attribute.FileAttribute ======
DIT			1
WMC			2
NOC			0
RFC			2
LCOM			1
NPM			2
Ca			3
====== java.nio.channels.AsynchronousFileChannel ======
DIT			1
WMC			16
NOC			0
RFC			15
LCOM			105
NPM			15
Ca			3
====== java.util.concurrent.ExecutorService ======
DIT			1
WMC			12
NOC			0
RFC			12
LCOM			66
NPM			12
Ca			2
====== java.nio.channels.SeekableByteChannel ======
DIT			1
WMC			6
NOC			0
RFC			6
LCOM			15
NPM			6
Ca			3
====== java.nio.file.DirectoryStream ======
DIT			1
WMC			1
NOC			0
RFC			1
LCOM			0
NPM			1
Ca			1
====== java.nio.file.AccessMode ======
DIT			2
WMC			5
NOC			0
RFC			6
LCOM			1
NPM			4
Ca			2
====== java.nio.file.attribute.FileAttributeView ======
DIT			1
WMC			0
NOC			0
RFC			0
LCOM			0
NPM			0
Ca			2
====== java.nio.file.attribute.BasicFileAttributes ======
DIT			1
WMC			9
NOC			0
RFC			9
LCOM			36
NPM			9
Ca			1
====== java.nio.file.attribute.FileStoreAttributeView ======
DIT			1
WMC			0
NOC			0
RFC			0
LCOM			0
NPM			0
Ca			1
====== java.nio.file.attribute.UserPrincipal ======
DIT			1
WMC			0
NOC			0
RFC			0
LCOM			0
NPM			0
Ca			2
====== java.nio.file.attribute.GroupPrincipal ======
DIT			1
WMC			0
NOC			0
RFC			0
LCOM			0
NPM			0
Ca			1
====== java.net.Inet4Address ======
DIT			2
WMC			20
NOC			0
RFC			17
LCOM			136
NPM			14
Ca			1
====== sun.reflect.generics.visitor.TypeTreeVisitor ======
DIT			1
WMC			17
NOC			0
RFC			17
LCOM			136
NPM			17
Ca			19
====== sun.reflect.generics.tree.SimpleClassTypeSignature ======
DIT			1
WMC			6
NOC			0
RFC			5
LCOM			10
NPM			5
Ca			4
====== sun.reflect.generics.tree.ArrayTypeSignature ======
DIT			1
WMC			4
NOC			0
RFC			3
LCOM			3
NPM			3
Ca			3
====== sun.reflect.generics.tree.TypeVariableSignature ======
DIT			1
WMC			4
NOC			0
RFC			3
LCOM			3
NPM			3
Ca			3
====== sun.reflect.generics.tree.Wildcard ======
DIT			1
WMC			5
NOC			0
RFC			4
LCOM			6
NPM			4
Ca			3
====== sun.reflect.generics.tree.BottomSignature ======
DIT			1
WMC			3
NOC			0
RFC			2
LCOM			1
NPM			2
Ca			3
====== sun.reflect.generics.tree.ByteSignature ======
DIT			1
WMC			3
NOC			0
RFC			2
LCOM			1
NPM			2
Ca			3
====== sun.reflect.generics.tree.BooleanSignature ======
DIT			1
WMC			3
NOC			0
RFC			2
LCOM			1
NPM			2
Ca			3
====== sun.reflect.generics.tree.ShortSignature ======
DIT			1
WMC			3
NOC			0
RFC			2
LCOM			1
NPM			2
Ca			3
====== sun.reflect.generics.tree.CharSignature ======
DIT			1
WMC			3
NOC			0
RFC			2
LCOM			1
NPM			2
Ca			3
====== sun.reflect.generics.tree.IntSignature ======
DIT			1
WMC			3
NOC			0
RFC			2
LCOM			1
NPM			2
Ca			3
====== sun.reflect.generics.tree.LongSignature ======
DIT			1
WMC			3
NOC			0
RFC			2
LCOM			1
NPM			2
Ca			3
====== sun.reflect.generics.tree.FloatSignature ======
DIT			1
WMC			3
NOC			0
RFC			2
LCOM			1
NPM			2
Ca			3
====== sun.reflect.generics.tree.DoubleSignature ======
DIT			1
WMC			3
NOC			0
RFC			2
LCOM			1
NPM			2
Ca			3
====== sun.reflect.generics.tree.VoidDescriptor ======
DIT			1
WMC			3
NOC			0
RFC			2
LCOM			1
NPM			2
Ca			3
====== java.lang.NullPointerException ======
DIT			4
WMC			2
NOC			0
RFC			0
LCOM			0
NPM			2
Ca			1
====== java.util.zip.ZipCoder ======
DIT			1
WMC			10
NOC			0
RFC			9
LCOM			36
NPM			0
Ca			2
====== java.util.zip.Inflater ======
DIT			1
WMC			29
NOC			0
RFC			27
LCOM			351
NPM			19
Ca			3
====== java.util.Deque ======
DIT			1
WMC			27
NOC			0
RFC			27
LCOM			351
NPM			27
Ca			2
====== java.util.zip.ZipException ======
DIT			4
WMC			2
NOC			0
RFC			0
LCOM			0
NPM			2
Ca			2
====== java.util.zip.InflaterInputStream ======
DIT			3
WMC			13
NOC			1
RFC			10
LCOM			45
NPM			11
Ca			1
====== java.util.NoSuchElementException ======
DIT			4
WMC			2
NOC			0
RFC			0
LCOM			0
NPM			2
Ca			1
====== java.io.ByteArrayOutputStream ======
DIT			2
WMC			14
NOC			0
RFC			12
LCOM			66
NPM			12
Ca			1
====== sun.security.util.ManifestDigester ======
DIT			1
WMC			5
NOC			0
RFC			4
LCOM			6
NPM			3
Ca			2
====== sun.security.util.ManifestEntryVerifier ======
DIT			1
WMC			7
NOC			0
RFC			6
LCOM			15
NPM			6
Ca			2
====== java.util.AbstractSequentialList ======
DIT			3
WMC			8
NOC			0
RFC			7
LCOM			21
NPM			7
Ca			1
====== java.util.Queue ======
DIT			1
WMC			6
NOC			0
RFC			6
LCOM			15
NPM			6
Ca			1
====== java.nio.channels.spi.AbstractInterruptibleChannel ======
DIT			1
WMC			7
NOC			1
RFC			6
LCOM			15
NPM			2
Ca			2
====== java.nio.channels.GatheringByteChannel ======
DIT			1
WMC			2
NOC			0
RFC			2
LCOM			1
NPM			2
Ca			1
====== java.nio.channels.ScatteringByteChannel ======
DIT			1
WMC			2
NOC			0
RFC			2
LCOM			1
NPM			2
Ca			1
====== java.nio.channels.ReadableByteChannel ======
DIT			1
WMC			1
NOC			0
RFC			1
LCOM			0
NPM			1
Ca			3
====== java.nio.MappedByteBuffer ======
DIT			3
WMC			12
NOC			0
RFC			10
LCOM			45
NPM			3
Ca			2
====== java.nio.channels.FileLock ======
DIT			1
WMC			12
NOC			0
RFC			10
LCOM			45
NPM			10
Ca			2
====== java.nio.channels.InterruptibleChannel ======
DIT			1
WMC			1
NOC			0
RFC			1
LCOM			0
NPM			1
Ca			1
====== java.nio.channels.ByteChannel ======
DIT			1
WMC			0
NOC			0
RFC			0
LCOM			0
NPM			0
Ca			1
====== java.nio.channels.AsynchronousChannel ======
DIT			1
WMC			1
NOC			0
RFC			1
LCOM			0
NPM			1
Ca			1
====== java.nio.channels.CompletionHandler ======
DIT			1
WMC			2
NOC			0
RFC			2
LCOM			1
NPM			2
Ca			1
====== java.util.concurrent.Future ======
DIT			1
WMC			5
NOC			0
RFC			5
LCOM			10
NPM			5
Ca			2
====== java.util.concurrent.Executor ======
DIT			1
WMC			1
NOC			0
RFC			1
LCOM			0
NPM			1
Ca			1
====== java.util.concurrent.Callable ======
DIT			1
WMC			1
NOC			0
RFC			1
LCOM			0
NPM			1
Ca			1
====== java.util.concurrent.ExecutionException ======
DIT			3
WMC			4
NOC			0
RFC			0
LCOM			0
NPM			2
Ca			2
====== java.util.concurrent.TimeoutException ======
DIT			3
WMC			2
NOC			0
RFC			0
LCOM			0
NPM			2
Ca			2
====== java.nio.file.attribute.AttributeView ======
DIT			1
WMC			1
NOC			0
RFC			1
LCOM			0
NPM			1
Ca			2
====== java.nio.file.attribute.FileTime ======
DIT			1
WMC			10
NOC			0
RFC			9
LCOM			36
NPM			8
Ca			3
====== java.util.zip.ZStreamRef ======
DIT			1
WMC			3
NOC			0
RFC			2
LCOM			1
NPM			0
Ca			1
====== java.util.zip.DataFormatException ======
DIT			3
WMC			2
NOC			0
RFC			0
LCOM			0
NPM			2
Ca			1
====== sun.misc.BASE64Decoder ======
DIT			2
WMC			4
NOC			0
RFC			3
LCOM			3
NPM			1
Ca			1
====== java.util.jar.JarException ======
DIT			5
WMC			2
NOC			0
RFC			0
LCOM			0
NPM			2
Ca			1
====== java.nio.channels.AsynchronousCloseException ======
DIT			5
WMC			1
NOC			0
RFC			0
LCOM			0
NPM			1
Ca			1
====== sun.misc.CharacterDecoder ======
DIT			1
WMC			14
NOC			1
RFC			13
LCOM			78
NPM			6
Ca			1
====== java.io.PushbackInputStream ======
DIT			3
WMC			14
NOC			0
RFC			12
LCOM			66
NPM			13
Ca			2
====== java.nio.channels.ClosedChannelException ======
DIT			4
WMC			1
NOC			1
RFC			0
LCOM			0
NPM			1
Ca			1
====== default ======
NCI			2
Ca			0
Ce			6
A			0.0
I			1.0
DMS			0.0
====== abstractpackage ======
NCI			3
Ca			1
Ce			5
A			0.33333
I			0.83333
DMS			0.16667
====== ownpackage ======
NCI			1
Ca			2
Ce			4
A			0.0
I			0.66667
DMS			0.33333
====== sun.reflect.generics.tree ======
NCI			26
Ca			9
Ce			5
A			0.30769
I			0.35714
DMS			0.33516
====== java.math ======
NCI			7
Ca			3
Ce			22
A			0.0
I			0.88
DMS			0.12
====== java.io ======
NCI			87
Ca			154
Ce			68
A			0.22989
I			0.30631
DMS			0.46381
====== java.util.spi ======
NCI			2
Ca			4
Ce			3
A			1.0
I			0.42857
DMS			0.42857
====== java.util.zip ======
NCI			13
Ca			6
Ce			19
A			0.07692
I			0.76
DMS			0.16308
====== java.nio.channels ======
NCI			16
Ca			4
Ce			17
A			0.8125
I			0.80952
DMS			0.62202
====== java.lang ======
NCI			100
Ca			764
Ce			89
A			0.19
I			0.10434
DMS			0.70566
====== java.text.spi ======
NCI			1
Ca			1
Ce			3
A			1.0
I			0.75
DMS			0.75
====== java.nio.file ======
NCI			16
Ca			4
Ce			27
A			0.875
I			0.87097
DMS			0.74597
====== java.security ======
NCI			40
Ca			69
Ce			37
A			0.35
I			0.34906
DMS			0.30094
====== sun.reflect ======
NCI			9
Ca			15
Ce			22
A			0.55556
I			0.59459
DMS			0.15015
====== java.util ======
NCI			128
Ca			125
Ce			92
A			0.21094
I			0.42396
DMS			0.3651
====== sun.reflect.generics.repository ======
NCI			6
Ca			4
Ce			12
A			0.33333
I			0.75
DMS			0.08333
====== java.lang.ref ======
NCI			10
Ca			26
Ce			6
A			0.1
I			0.1875
DMS			0.7125
====== sun.util.calendar ======
NCI			9
Ca			3
Ce			13
A			0.55556
I			0.8125
DMS			0.36806
====== java.security.cert ======
NCI			10
Ca			10
Ce			16
A			0.4
I			0.61538
DMS			0.01538
====== sun.misc ======
NCI			25
Ca			18
Ce			57
A			0.36
I			0.76
DMS			0.12
====== java.util.concurrent.locks ======
NCI			10
Ca			1
Ce			13
A			0.5
I			0.92857
DMS			0.42857
====== java.lang.annotation ======
NCI			6
Ca			20
Ce			9
A			0.66667
I			0.31034
DMS			0.02299
====== sun.security.util ======
NCI			6
Ca			7
Ce			15
A			0.0
I			0.68182
DMS			0.31818
====== java.lang.reflect ======
NCI			12
Ca			23
Ce			22
A			0.58333
I			0.48889
DMS			0.07222
====== java.util.regex ======
NCI			115
Ca			2
Ce			57
A			0.05217
I			0.9661
DMS			0.01828
====== sun.net.www ======
NCI			2
Ca			1
Ce			9
A			0.0
I			0.9
DMS			0.1
====== java.util.concurrent ======
NCI			27
Ca			22
Ce			54
A			0.25926
I			0.71053
DMS			0.03021
====== java.nio ======
NCI			10
Ca			19
Ce			15
A			0.9
I			0.44118
DMS			0.34118
====== java.nio.charset ======
NCI			14
Ca			12
Ce			24
A			0.28571
I			0.66667
DMS			0.04762
====== java.nio.file.attribute ======
NCI			11
Ca			8
Ce			8
A			0.72727
I			0.5
DMS			0.22727
====== java.net ======
NCI			35
Ca			27
Ce			49
A			0.22857
I			0.64474
DMS			0.12669
====== sun.util.resources ======
NCI			1
Ca			2
Ce			6
A			1.0
I			0.75
DMS			0.75
====== java.text ======
NCI			15
Ca			3
Ce			22
A			0.26667
I			0.88
DMS			0.14667
====== sun.net.spi.nameservice ======
NCI			1
Ca			3
Ce			4
A			1.0
I			0.57143
DMS			0.57143
====== sun.reflect.generics.visitor ======
NCI			3
Ca			20
Ce			22
A			0.66667
I			0.52381
DMS			0.19048
====== java.util.jar ======
NCI			19
Ca			7
Ce			34
A			0.0
I			0.82927
DMS			0.17073
====== sun.util.locale ======
NCI			16
Ca			5
Ce			15
A			0.0625
I			0.75
DMS			0.1875
====== java.util.concurrent.atomic ======
NCI			2
Ca			4
Ce			4
A			0.0
I			0.5
DMS			0.5
====== sun.nio.ch ======
NCI			1
Ca			5
Ce			2
A			1.0
I			0.28571
DMS			0.28571
====== sun.reflect.annotation ======
NCI			2
Ca			3
Ce			10
A			0.0
I			0.76923
DMS			0.23077
====== java.nio.channels.spi ======
NCI			2
Ca			1
Ce			7
A			0.5
I			0.875
DMS			0.375
====== java.nio.file.spi ======
NCI			2
Ca			1
Ce			29
A			0.5
I			0.96667
DMS			0.46667
====== sun.util ======
NCI			6
Ca			2
Ce			14
A			0.16667
I			0.875
DMS			0.04167
====== java.nio.charset.spi ======
NCI			1
Ca			4
Ce			4
A			1.0
I			0.5
DMS			0.5
====== sun.reflect.generics.factory ======
NCI			1
Ca			11
Ce			7
A			1.0
I			0.38889
DMS			0.38889
====== sun.nio.cs ======
NCI			1
Ca			1
Ce			11
A			0.0
I			0.91667
DMS			0.08333

